{
    "site_name": "Your Site",
    "site_name_slug": "your-site",
    "cname": "yourdomain.com",
    "description": "Short description of the site",
    "author": "Your Name",
    "license": "GPL-3.0"
}
